%YAML 1.1
%TAG !u! tag:unity3d.com,2011:
--- !u!1001 &100100000
Prefab:
  m_ObjectHideFlags: 1
  serializedVersion: 2
  m_Modification:
    m_TransformParent: {fileID: 0}
    m_Modifications: []
    m_RemovedComponents: []
  m_ParentPrefab: {fileID: 0}
  m_RootGameObject: {fileID: 1000010217131176}
  m_IsPrefabParent: 1
--- !u!1 &1000010217131176
GameObject:
  m_ObjectHideFlags: 0
  m_PrefabParentObject: {fileID: 0}
  m_PrefabInternal: {fileID: 100100000}
  serializedVersion: 5
  m_Component:
  - component: {fileID: 4000010366029276}
  - component: {fileID: 114000011035109614}
  m_Layer: 0
  m_Name: 45 Nicanor Abelardo
  m_TagString: Untagged
  m_Icon: {fileID: 0}
  m_NavMeshLayer: 0
  m_StaticEditorFlags: 0
  m_IsActive: 1
--- !u!4 &4000010366029276
Transform:
  m_ObjectHideFlags: 1
  m_PrefabParentObject: {fileID: 0}
  m_PrefabInternal: {fileID: 100100000}
  m_GameObject: {fileID: 1000010217131176}
  m_LocalRotation: {x: 0, y: 0, z: 0, w: 1}
  m_LocalPosition: {x: 0, y: 0.051105, z: 0}
  m_LocalScale: {x: 1, y: 1, z: 1}
  m_Children: []
  m_Father: {fileID: 0}
  m_RootOrder: 0
  m_LocalEulerAnglesHint: {x: 0, y: 0, z: 0}
--- !u!114 &114000011035109614
MonoBehaviour:
  m_ObjectHideFlags: 1
  m_PrefabParentObject: {fileID: 0}
  m_PrefabInternal: {fileID: 100100000}
  m_GameObject: {fileID: 1000010217131176}
  m_Enabled: 1
  m_EditorHideFlags: 0
  m_Script: {fileID: 11500000, guid: 40416280976acd042845575f44216058, type: 3}
  m_Name: 
  m_EditorClassIdentifier: 
  id: 45
  name: Nicanor Abelardo
  artist: Napoleon Abueva
  location:
    latitude: 14.65666
    longitude: 121.06558
  type: 1
  image: {fileID: 21300000, guid: 7581582de94f4477b9b6e2f697e5dbfb, type: 3}
  description: '"The bust of Nicanor Abelardo is an inanimate witness to the formative
    years that each music student has to live through."


    Abelardo was a composer known for his kundiman songs, especially before world
    war 2. UP Diliman''s college of music was named in his honor.


    Source: https://irarenas.wordpress.com/tag/nicanor-abelardo/'
  nearby: 0
  within: 0
  distance: 212.49257969022023
  radius: 100
  ARenabled: 1
  imageTarget: {fileID: 0}
  recording: {fileID: 0}
  unlocked: 0
